%!PS-Adobe-2.0 EPSF-2.0
%%Title: ClassName
%%Creator: Doxygen
%%CreationDate: Time
%%For: 
%Magnification: 1.00
%%Orientation: Portrait
%%BoundingBox: 0 0 500 42.941494
%%Pages: 0
%%BeginSetup
%%EndSetup
%%EndComments

% ----- variables -----

/boxwidth 0 def
/boxheight 40 def
/fontheight 24 def
/marginwidth 10 def
/distx 20 def
/disty 40 def
/boundaspect 11.643750 def  % aspect ratio of the BoundingBox (width/height)
/boundx 500 def
/boundy boundx boundaspect div def
/xspacing 0 def
/yspacing 0 def
/rows 8 def
/cols 9 def
/scalefactor 0 def
/boxfont /Times-Roman findfont fontheight scalefont def

% ----- procedures -----

/dotted { [1 4] 0 setdash } def
/dashed { [5] 0 setdash } def
/solid  { [] 0 setdash } def

/max % result = MAX(arg1,arg2)
{
  /a exch def
  /b exch def
  a b gt {a} {b} ifelse
} def

/xoffset % result = MAX(0,(scalefactor-(boxwidth*cols+distx*(cols-1)))/2)
{
  0 scalefactor boxwidth cols mul distx cols 1 sub mul add sub 2 div max
} def

/cw % boxwidth = MAX(boxwidth, stringwidth(arg1))
{
  /str exch def
  /boxwidth boxwidth str stringwidth pop max def
} def

/box % draws a box with text 'arg1' at grid pos (arg2,arg3)
{ gsave
  2 setlinewidth
  newpath
  exch xspacing mul xoffset add
  exch yspacing mul
  moveto
  boxwidth 0 rlineto 
  0 boxheight rlineto 
  boxwidth neg 0 rlineto 
  0 boxheight neg rlineto 
  closepath
  dup stringwidth pop neg boxwidth add 2 div
  boxheight fontheight 2 div sub 2 div
  rmoveto show stroke
  grestore
} def  

/mark
{ newpath
  exch xspacing mul xoffset add boxwidth add
  exch yspacing mul
  moveto
  0 boxheight 4 div rlineto
  boxheight neg 4 div boxheight neg 4 div rlineto
  closepath
  eofill
  stroke
} def

/arrow
{ newpath
  moveto
  3 -8 rlineto
  -6 0 rlineto
  3 8 rlineto
  closepath
  eofill
  stroke
} def

/out % draws an output connector for the block at (arg1,arg2)
{
  newpath
  exch xspacing mul xoffset add boxwidth 2 div add
  exch yspacing mul boxheight add
  /y exch def
  /x exch def
  x y moveto
  0 disty 2 div rlineto 
  stroke
  1 eq { x y disty 2 div add arrow } if
} def

/in % draws an input connector for the block at (arg1,arg2)
{
  newpath
  exch xspacing mul xoffset add boxwidth 2 div add
  exch yspacing mul disty 2 div sub
  /y exch def
  /x exch def
  x y moveto
  0 disty 2 div rlineto
  stroke
  1 eq { x y disty 2 div add arrow } if
} def

/hedge
{
  exch xspacing mul xoffset add boxwidth 2 div add
  exch yspacing mul boxheight 2 div sub
  /y exch def
  /x exch def
  newpath
  x y moveto
  boxwidth 2 div distx add 0 rlineto
  stroke
  1 eq
  { newpath x boxwidth 2 div distx add add y moveto
    -8 3 rlineto
    0 -6 rlineto
    8 3 rlineto
    closepath
    eofill
    stroke
  } if
} def

/vedge
{
  /ye exch def
  /ys exch def
  /xs exch def
  newpath
  xs xspacing mul xoffset add boxwidth 2 div add dup
  ys yspacing mul boxheight 2 div sub
  moveto
  ye yspacing mul boxheight 2 div sub
  lineto
  stroke
} def

/conn % connections the blocks from col 'arg1' to 'arg2' of row 'arg3'
{
  /ys exch def
  /xe exch def
  /xs exch def
  newpath
  xs xspacing mul xoffset add boxwidth 2 div add
  ys yspacing mul disty 2 div sub
  moveto
  xspacing xe xs sub mul 0
  rlineto
  stroke
} def

% ----- main ------

boxfont setfont
1 boundaspect scale
(Structures.Materials.Elastic.ElasticMaterial) cw
(Structures.Materials.Elastic.IElasticMaterial) cw
(Structures.Materials.IGenericMaterial) cw
(Structures.Utilities.Graphics.IColorizable) cw
(Structures.Materials.Elastic.IsotropicMaterial) cw
(Structures.Materials.Elastic.OrthotropicMaterial) cw
(Structures.Materials.Inelastic.InelasticMaterial) cw
(Structures.SolverDesignModels.Materials.DesignIsotropicMaterial) cw
(Structures.Materials.Elastic.Wood.WoodMaterial) cw
(Structures.SolverDesignModels.Materials.DesignOrthotropicMaterial) cw
(Structures.Materials.Inelastic.Concrete.InelasticConcreteMaterial) cw
(Structures.Materials.Inelastic.Steel.InelasticSteelMaterial) cw
(Structures.SolverDesignModels.Materials.AluminumMaterial) cw
(Structures.SolverDesignModels.Materials.GeneralIsotropicMaterial) cw
(Structures.SolverDesignModels.Materials.MasonryMaterial) cw
(Structures.Materials.Elastic.Wood.CrossLaminatedTimberProduct) cw
(Structures.Materials.Elastic.Wood.GluedLaminatedMaterial) cw
(Structures.Materials.Elastic.Wood.LaminatedStrandLumberMaterial) cw
(Structures.Materials.Elastic.Wood.SolidWoodMaterial) cw
(Structures.SolverDesignModels.Materials.GeneralOrthotropicMaterial) cw
(Structures.Materials.Inelastic.Concrete.ConfinedConcreteMaterial) cw
(Structures.Materials.Inelastic.Concrete.HsuHighStrengthConcrete) cw
(Structures.Materials.Inelastic.Concrete.ManderConcrete) cw
(Structures.Materials.Inelastic.Steel.KentSteel) cw
(Structures.Materials.Inelastic.Steel.ManderSteel) cw
(Structures.Materials.Inelastic.Steel.MenegottoPintoSteel) cw
(Structures.Materials.Inelastic.Steel.ModifiedRambergOsgoodSteel) cw
/boxwidth boxwidth marginwidth 2 mul add def
/xspacing boxwidth distx add def
/yspacing boxheight disty add def
/scalefactor 
  boxwidth cols mul distx cols 1 sub mul add
  boxheight rows mul disty rows 1 sub mul add boundaspect mul 
  max def
boundx scalefactor div boundy scalefactor div scale

% ----- classes -----

 (Structures.Materials.Elastic.ElasticMaterial) 3.000000 6.000000 box
 (Structures.Materials.Elastic.IElasticMaterial) 2.000000 7.000000 box
 (Structures.Materials.IGenericMaterial) 3.000000 7.000000 box
 (Structures.Utilities.Graphics.IColorizable) 4.000000 7.000000 box
 (Structures.Materials.Elastic.IsotropicMaterial) 0.000000 5.000000 box
 (Structures.Materials.Elastic.OrthotropicMaterial) 3.000000 5.000000 box
 (Structures.Materials.Inelastic.InelasticMaterial) 6.000000 5.000000 box
 (Structures.SolverDesignModels.Materials.DesignIsotropicMaterial) 0.000000 4.000000 box
 (Structures.Materials.Elastic.Wood.WoodMaterial) 2.000000 4.000000 box
 (Structures.SolverDesignModels.Materials.DesignOrthotropicMaterial) 4.000000 4.000000 box
 (Structures.Materials.Inelastic.Concrete.InelasticConcreteMaterial) 5.000000 4.000000 box
 (Structures.Materials.Inelastic.Steel.InelasticSteelMaterial) 7.000000 4.000000 box
 (Structures.SolverDesignModels.Materials.AluminumMaterial) 1.000000 3.000000 box
 (Structures.SolverDesignModels.Materials.GeneralIsotropicMaterial) 1.000000 2.000000 box
 (Structures.SolverDesignModels.Materials.MasonryMaterial) 1.000000 1.000000 box
 (Structures.Materials.Elastic.Wood.CrossLaminatedTimberProduct) 3.000000 3.000000 box
 (Structures.Materials.Elastic.Wood.GluedLaminatedMaterial) 3.000000 2.000000 box
 (Structures.Materials.Elastic.Wood.LaminatedStrandLumberMaterial) 3.000000 1.000000 box
 (Structures.Materials.Elastic.Wood.SolidWoodMaterial) 3.000000 0.000000 box
 (Structures.SolverDesignModels.Materials.GeneralOrthotropicMaterial) 4.000000 3.000000 box
 (Structures.Materials.Inelastic.Concrete.ConfinedConcreteMaterial) 6.000000 3.000000 box
6.000000 3.000000 mark
 (Structures.Materials.Inelastic.Concrete.HsuHighStrengthConcrete) 6.000000 2.000000 box
 (Structures.Materials.Inelastic.Concrete.ManderConcrete) 6.000000 1.000000 box
6.000000 1.000000 mark
 (Structures.Materials.Inelastic.Steel.KentSteel) 8.000000 3.000000 box
 (Structures.Materials.Inelastic.Steel.ManderSteel) 8.000000 2.000000 box
8.000000 2.000000 mark
 (Structures.Materials.Inelastic.Steel.MenegottoPintoSteel) 8.000000 1.000000 box
 (Structures.Materials.Inelastic.Steel.ModifiedRambergOsgoodSteel) 8.000000 0.000000 box
8.000000 0.000000 mark

% ----- relations -----

solid
0 3.000000 6.000000 out
solid
2.000000 4.000000 7.000000 conn
solid
1 2.000000 7.000000 in
solid
1 3.000000 7.000000 in
solid
1 4.000000 7.000000 in
solid
1 3.000000 5.250000 out
solid
0.000000 6.000000 6.000000 conn
solid
0 0.000000 5.750000 in
solid
1 0.000000 4.250000 out
solid
0 3.000000 5.750000 in
solid
1 3.000000 4.250000 out
solid
2.000000 4.000000 5.000000 conn
solid
0 6.000000 5.750000 in
solid
1 6.000000 4.250000 out
solid
5.000000 7.000000 5.000000 conn
solid
0 0.000000 4.750000 in
solid
1 0.000000 3.250000 out
solid
0 2.000000 4.750000 in
solid
1 2.000000 3.250000 out
solid
0 4.000000 4.750000 in
solid
1 4.000000 3.250000 out
solid
0 5.000000 4.750000 in
solid
1 5.000000 3.250000 out
solid
0 7.000000 4.750000 in
solid
1 7.000000 3.250000 out
solid
0 0.000000 3.500000 hedge
solid
0 0.000000 2.500000 hedge
solid
0 0.000000 1.500000 hedge
solid
0.000000 4.000000 1.500000 vedge
solid
0 2.000000 3.500000 hedge
solid
0 2.000000 2.500000 hedge
solid
0 2.000000 1.500000 hedge
solid
0 2.000000 0.500000 hedge
solid
2.000000 4.000000 0.500000 vedge
solid
0 4.000000 3.750000 in
solid
0 5.000000 3.500000 hedge
solid
0 5.000000 2.500000 hedge
solid
0 5.000000 1.500000 hedge
solid
5.000000 4.000000 1.500000 vedge
solid
0 7.000000 3.500000 hedge
solid
0 7.000000 2.500000 hedge
solid
0 7.000000 1.500000 hedge
solid
0 7.000000 0.500000 hedge
solid
7.000000 4.000000 0.500000 vedge
